Getting to Know infer
…
Each row is an individual survey response, containing some basic demographic information on the respondent as well as some additional variables. See ?gss for more information on the variables included and their source. Note that this data (and our examples on it) are for demonstration purposes only, and will not necessarily provide accurate estimates unless weighted properly. For these examples, let’s suppose that this dataset is a representative sample of a population we want to learn about: American adults.

specify(): Specifying Response (and Explanatory) Variables

The specify function can be used to specify which of the variables in the dataset you’re interested in. If you’re only interested in, say, the age of the respondents, you might write:

gss %>%
  specify(response = age)

## Response: age (numeric)
## # A tibble: 500 x 1
##      age
##    <dbl>
##  1    36
##  2    34
##  3    24
##  4    42
##  5    31
##  6    32
##  7    48
##  8    36
##  9    30
## 10    33
## # … with 490 more rows
…
## [1] "infer"      "tbl_df"     "tbl"        "data.frame"

We can see that the infer class has been appended on top of the dataframe classes–this new class stores some extra metadata.

If you’re interested in two variables–age and partyid, for example–you can specify their relationship in one of two (equivalent) ways:

# with the named arguments
gss %>%
  specify(age ~ partyid)

## Response: age (numeric)
## Explanatory: partyid (factor)
## # A tibble: 500 x 2
##      age partyid
##    <dbl> <fct>  
##  1    36 ind    
##  2    34 rep    
##  3    24 ind    
##  4    42 ind    
##  5    31 rep    
##  6    32 rep    
##  7    48 dem    
##  8    36 ind    
##  9    30 rep    
## 10    33 dem    
## # … with 490 more rows

# as a formula
gss %>%
  specify(response = age, explanatory = partyid)

## Response: age (numeric)
## Explanatory: partyid (factor)
## # A tibble: 500 x 2
##      age partyid
##    <dbl> <fct>  
##  1    36 ind    
##  2    34 rep    
##  3    24 ind    
##  4    42 ind    
##  5    31 rep    
##  6    32 rep    
##  7    48 dem    
##  8    36 ind    
##  9    30 rep    
## 10    33 dem    
## # … with 490 more rows

If you’re doing inference on one proportion or a difference in proportions, you will need to use the success argument to specify which level of your response variable is a success. For instance, if you’re interested in the proportion of the population with a college degree, you might use the following code:

# specifying for inference on proportions
gss %>%
  specify(response = college, success = "degree")

## Response: college (factor)
## # A tibble: 500 x 1
##    college  
##    <fct>    
##  1 degree   
##  2 no degree
##  3 degree   
##  4 no degree
##  5 degree   
##  6 no degree
##  7 no degree
##  8 degree   
##  9 degree   
## 10 no degree
## # … with 490 more rows

hypothesize(): Declaring the Null Hypothesis

The next step in the infer pipeline is often to declare a null hypothesis using hypothesize(). The first step is to supply one of “independence” or “point” to the null argument. If your null hypothesis assumes independence between two variables, then this is all you need to supply to hypothesize():

gss %>%
  specify(college ~ partyid, success = "degree") %>%
  hypothesize(null = "independence")

## Response: college (factor)
## Explanatory: partyid (factor)
## Null Hypothesis: independence
## # A tibble: 500 x 2
##    college   partyid
##    <fct>     <fct>  
##  1 degree    ind    
##  2 no degree rep    
##  3 degree    ind    
##  4 no degree ind    
##  5 degree    rep    
##  6 no degree rep    
##  7 no degree dem    
##  8 degree    ind    
##  9 degree    rep    
## 10 no degree dem    
## # … with 490 more rows

If you’re doing inference on a point estimate, you will also need to provide one of p (the true proportion of successes, between 0 and 1), mu (the true mean), med (the true median), or sigma (the true standard deviation). For instance, if the null hypothesis is that the mean number of hours worked per week in our population is 40, we would write:

gss %>%
  specify(response = hours) %>%
  hypothesize(null = "point", mu = 40)

## Response: hours (numeric)
## Null Hypothesis: point
## # A tibble: 500 x 1
##    hours
##    <dbl>
##  1    50
##  2    31
##  3    40
##  4    40
##  5    40
##  6    53
##  7    32
##  8    20
##  9    40
## 10    40
## # … with 490 more rows
…
permute: For each replicate, each input value will be randomly reassigned (without replacement) to a new output value in the sample.

simulate: A value will be sampled from a theoretical distribution with parameters specified in hypothesize() for each replicate. (This option is currently only applicable for testing point estimates.)

Continuing on with our example above, about the average number of hours worked a week, we might write:

gss %>%
  specify(response = hours) %>%
  hypothesize(null = "point", mu = 40) %>%
  generate(reps = 1000, type = "bootstrap")

## Response: hours (numeric)
## Null Hypothesis: point
## # A tibble: 500,000 x 2
## # Groups:   replicate [1,000]
##    replicate hours
##        <int> <dbl>
##  1         1  48.6
##  2         1  36.6
##  3         1  38.6
##  4         1  73.6
##  5         1  48.6
##  6         1  38.6
##  7         1  61.6
##  8         1  58.6
##  9         1  38.6
## 10         1  23.6
## # … with 499,990 more rows

In the above example, we take 1000 bootstrap samples to form our null distribution.

To generate a null distribution for the independence of two variables, we could also randomly reshuffle the pairings of explanatory and response variables to break any existing association. For instance, to generate 1000 replicates that can be used to create a null distribution under the assumption that political party affiliation is not affected by age:

gss %>%
  specify(partyid ~ age) %>%
  hypothesize(null = "independence") %>%
  generate(reps = 1000, type = "permute")

## Response: partyid (factor)
## Explanatory: age (numeric)
## Null Hypothesis: independence
## # A tibble: 500,000 x 3
## # Groups:   replicate [1,000]
##    partyid   age replicate
##    <fct>   <dbl>     <int>
##  1 rep        36         1
##  2 ind        34         1
##  3 dem        24         1
##  4 ind        42         1
##  5 rep        31         1
##  6 rep        32         1
##  7 dem        48         1
##  8 ind        36         1
##  9 rep        30         1
## 10 dem        33         1
## # … with 499,990 more rows

calculate(): Calculating Summary Statistics

Depending on whether you’re carrying out computation-based inference or theory-based inference, you will either supply calculate() with the output of generate() or hypothesize, respectively. The function, for one, takes in a stat argument, which is currently one of “mean”, “median”, “sum”, “sd”, “prop”, “count”, “diff in means”, “diff in medians”, “diff in props”, “Chisq”, “F”, “t”, “z”, “slope”, or “correlation”. For example, continuing our example above to calculate the null distribution of mean hours worked per week:

gss %>%
  specify(response = hours) %>%
  hypothesize(null = "point", mu = 40) %>%
  generate(reps = 1000, type = "bootstrap") %>%
  calculate(stat = "mean")

## # A tibble: 1,000 x 2
##    replicate  stat
##        <int> <dbl>
##  1         1  41.1
##  2         2  38.8
##  3         3  39.5
##  4         4  39.5
##  5         5  39.7
##  6         6  40.4
##  7         7  39.6
##  8         8  41.3
##  9         9  40.2
## 10        10  39.8
## # … with 990 more rows

The output of calculate() here shows us the sample statistic (in this case, the mean) for each of our 1000 replicates. If you’re carrying out inference on differences in means, medians, or proportions, or t and z statistics, you will need to supply an order argument, giving the order in which the explanatory variables should be subtracted. For instance, to find the difference in mean age of those that have a college degree and those that don’t, we might write:

gss %>%
  specify(age ~ college) %>%
  hypothesize(null = "independence") %>%
  generate(reps = 1000, type = "permute") %>%
  calculate("diff in means", order = c("degree", "no degree"))

## # A tibble: 1,000 x 2
##    replicate     stat
##        <int>    <dbl>
##  1         1  1.44   
##  2         2 -0.725  
##  3         3  0.227  
##  4         4 -0.00250
##  5         5 -1.93   
##  6         6  0.271  
##  7         7  1.13   
##  8         8 -1.10   
##  9         9  1.69   
## 10        10  1.18   
## # … with 990 more rows
…
